…
> nameEx("census_data")
> ### * census_data
> 
> flush(stderr()); flush(stdout())
> 
> base::assign(".ptime", proc.time(), pos = "CheckExEnv")
> ### Name: census_data
> ### Title: A data set of gdp per state per year
> ### Aliases: census_data
> ### Keywords: datasets
> 
> ### ** Examples
> 
>   census_data
# A tibble: 520 × 101
   GEOID state           Year `Estimate!!Tot…` `Estimate!!Tot…` `Estimate!!Tot…`
   <chr> <chr>          <int>            <dbl>            <dbl>            <dbl>
 1 01    Alabama         2010          4785298          2322243           158291
 2 02    Alaska          2010           713985           372436            27406
 3 04    Arizona         2010          6413737          3190700           234650
 4 05    Arkansas        2010          2921606          1430837           101141
 5 06    California      2010         37349363         18570505          1293094
 6 08    Colorado        2010          5049071          2531362           176774
 7 09    Connecticut     2010          3577073          1738918           101888
 8 10    Delaware        2010           899769           436608            28725
 9 11    District of C…  2010           604453           285729            16786
10 12    Florida         2010         18843326          9212548           542752
# … with 510 more rows, and 95 more variables:
#   `Estimate!!Total!!Male!!5 to 9 years` <dbl>,
#   `Estimate!!Total!!Male!!10 to 14 years` <dbl>,
#   `Estimate!!Total!!Male!!15 to 17 years` <dbl>,
#   `Estimate!!Total!!Male!!18 and 19 years` <dbl>,
#   `Estimate!!Total!!Male!!20 years` <dbl>,
#   `Estimate!!Total!!Male!!21 years` <dbl>, …
…
> nameEx("crime_data")
> ### * crime_data
> 
> flush(stderr()); flush(stdout())
> 
> base::assign(".ptime", proc.time(), pos = "CheckExEnv")
> ### Name: crime_data
> ### Title: Different crime counts per state per year
> ### Aliases: crime_data
> ### Keywords: datasets
> 
> ### ** Examples
> 
>   crime_data
# A tibble: 439 × 12
   state    year violent_crime murder_and_nonneg…  rape robbery aggravated_assa…
   <chr>   <int>         <int>              <int> <int>   <int>            <int>
 1 ALABAMA  2006          2552                 44   290     491             1727
 2 ALABAMA  2007          3150                 35   343     554             2218
 3 ALABAMA  2008          3617                 44   392     668             2513
 4 ALABAMA  2009          3365                 57   352     477             2489
 5 ALABAMA  2010          2630                 42   279     308             2001
 6 ALABAMA  2011          3460                 49   339     371             2701
 7 ALABAMA  2012          4286                 66   357     492             3371
 8 ALABAMA  2013          3688                 59   614     416             2599
 9 ALABAMA  2014          2978                 45   473     257             2203
10 ALABAMA  2015          3954                 71   607     491             2785
# … with 429 more rows, and 5 more variables: property_crime <int>,
#   burglary <int>, larceny_theft <int>, motor_vehicle_theft <int>, arson <int>
…
> nameEx("gdp_data")
> ### * gdp_data
> 
> flush(stderr()); flush(stdout())
> 
> base::assign(".ptime", proc.time(), pos = "CheckExEnv")
> ### Name: gdp_data
> ### Title: A data set of gdp per state per year
> ### Aliases: gdp_data
> ### Keywords: datasets
> 
> ### ** Examples
> 
>   gdp_data
# A tibble: 1,020 × 3
# Groups:   state, Year [1,020]
    Year gdp_per_state_per_year state  
   <dbl>                  <dbl> <chr>  
 1  2001              122915470 Alabama
 2  2002              127504954 Alabama
 3  2003              134152584 Alabama
 4  2004              147715213 Alabama
 5  2005              158846827 Alabama
 6  2006              166469026 Alabama
 7  2007              172975196 Alabama
 8  2008              174526301 Alabama
 9  2009              170930901 Alabama
10  2010              177249157 Alabama
# … with 1,010 more rows
…
> nameEx("total_employment_data")
> ### * total_employment_data
> 
> flush(stderr()); flush(stdout())
> 
> base::assign(".ptime", proc.time(), pos = "CheckExEnv")
> ### Name: total_employment_data
> ### Title: A data set of gdp per state per year
> ### Aliases: total_employment_data
> ### Keywords: datasets
> 
> ### ** Examples
> 
>   total_employment_data
# A tibble: 1,020 × 3
# Groups:   state, Year [1,020]
    Year num_of_jobs state  
   <dbl>       <dbl> <chr>  
 1  2001     2376053 Alabama
 2  2002     2364828 Alabama
 3  2003     2371430 Alabama
 4  2004     2425649 Alabama
 5  2005     2486833 Alabama
 6  2006     2545556 Alabama
 7  2007     2604078 Alabama
 8  2008     2582591 Alabama
 9  2009     2479507 Alabama
10  2010     2460298 Alabama
# … with 1,010 more rows
…
